{
  "type": "service_account",
  "project_id": "swiatprzesylek-1532953022533",
  "private_key_id": "37c4d33651d52296cfca2beb84bc797c43ff49db",
  "private_key": "-----BEGIN PRIVATE KEY-----\nMIIEvAIBADANBgkqhkiG9w0BAQEFAASCBKYwggSiAgEAAoIBAQCmffz7cez0/Mj3\nHhHXH1RDyZX/RWqXcNNoFL7cfTo3Ysp3925MgoezgIdxsUPCbcWfEhKILpuTrs5z\nZFUBC+devUWPDOkG1ldYHgG49XaJbT4fhskxI1xpyXDVwIlfiEVUgXvDnIU+oLwh\n3Xe1v59nIyNPr/RIgLjJb7NexBoT28Yle3w0evKOjwtOirGnDQ3g71+GUs/xDVIx\nfOZdya4QpzneEE3e+Tc7yf2WGsCFDTTlR5bUwZy57C2GOmvKNyUJkSzcvw6/fGet\nh1VqOtCezLNZ0kb8/Txgjugy7NLklsGlP83NARJ7TWpsJPaVLvMEtqeRJvS/1iZ9\nAxsvu4v9AgMBAAECggEACvme0x55SH8KFQwvkIxD/EH4zX6Qc7zgGr9/WL6NN2Mf\nm1U9Y/VuJ52POtCSJGojDwTcduCyUxkWCpJFw49lfZ/MIDgcJl4RHOxsIFACCTYh\nKb0zXGC13KgG9E2VtgKgJggbwKh75MXTZlzDNuu+Vh4BW7qVclrAk6V1irIyUTZe\nOrdwPWCMlZ81JR1AsYkaR84r3ns4xv/GXkPG1PMOvSiOiM79Fm1OxyjkPMSRx/qA\n3uG8AVSJ0qD8YzAHxyPtEpIlQFk8RhvNeEgn5G46Jo65034pXw0h/ybCXTkoVob9\nFvNlXHEkE/l7BbgkmemYZE4tsjfi2JCtA7U70azSIQKBgQDRM8SvsLztOBJHmcTf\nwwFV0JJePkYXUB8Fc9iBdyP75U0B6mTTxarmhqiFx+eh60rj8SfwdeAwF/cXGwQc\naQggmsnSitFDYJwVPHqB1hBCKMlRR/+0TU2YJKKSJyHLvEaTCOMKBQGnwvWuD/99\neycIvw6ODOYSOK5IpX7BPi0ZkQKBgQDLvF9yYsS1k+PQ+HNEPVutbEED9/Vg3agC\nVNj1kD9Mc6r7+NVtWo3WIuyCG1L/M5LC9gD2IvWVGGJHB2OGcui+5RUMmthqRwVS\nyEJQuXERRg1Qxfv2UHM02odwuP1ztxVaS/EOfn/LwaSA3S2zXiUhaqYJFDQZ76Ts\ndykLbHJ1rQKBgCVsqWb0qxeUzFBaxclxzS9Y3JZXdZp+Ds6e5sBiW+GYJ6qMD/WC\niwwqUsN7+4gP25njbk2qCK0R3HYZsyaR845BopEznDP9eG6kHxZTAR2Uxk7wHmJW\n4eaxxxN2RKl5yPZMxLDqLF2ilujIm+AKw/TgmO34iMABu8vrLz3Kra7BAoGAJgA8\nzVke1799/rxYw6GuN+q5NcRKQIcXj1fEIAmHxPrOKbGAHaWGTyq0cpAmKvOzrCm2\nhDKBHA4wRo9aQPmt7+1Kv88iDrCwjYBM3kG4lUA7u5UyKf9XfcRE/wGCRNMhaHZB\nwDJYI+k6hc67d3lX86Ow1ICwNyY73N9dCIRx1QECgYAUjTlxyhQa7H1ZvBitBBL5\nKxORFrTECV0aXfscj5RyNysQofCR5vr9qsixxPRd37uCRoLYngP44NOB6ouiSxdt\ng1cXsUBAHjGHbGPG0K5UqzUImf5q7VViYPJURcKDA1uobCHesNRg8A+MCHexE2IW\nXzFt6iAr5que2FZNtOnxNg==\n-----END PRIVATE KEY-----\n",
  "client_email": "swiatprzesylek@swiatprzesylek-1532953022533.iam.gserviceaccount.com",
  "client_id": "108337165617208975769",
  "auth_uri": "https://accounts.google.com/o/oauth2/auth",
  "token_uri": "https://oauth2.googleapis.com/token",
  "auth_provider_x509_cert_url": "https://www.googleapis.com/oauth2/v1/certs",
  "client_x509_cert_url": "https://www.googleapis.com/robot/v1/metadata/x509/swiatprzesylek%40swiatprzesylek-1532953022533.iam.gserviceaccount.com"
}
